<?xml version="1.0" encoding="UTF-8"?>
<session version="1.0">
<refactoring comment="Delete resource &apos;inventario&apos;" deleteContents="false" description="Delete resource &apos;inventario&apos;" element1="/inventario" flags="7" id="org.eclipse.ltk.core.refactoring.delete.resources" resources="1" stamp="1572960229522"/>
</session>